…
# Load the bundled delivery data
data(delivery_data)

stops <- delivery_data$stops
ttm <- delivery_data$matrix

# Take a look at what we have
stops |>
  st_drop_geometry() |>
  select(id, address, packages)
```

    # A tibble: 26 × 3
       id    address                                    packages
       <chr> <chr>                                         <int>
     1 depot 3700 San Jacinto Dr, Fort Worth, TX 76116         0
     2 D01   6301 Camp Bowie Blvd, Fort Worth, TX 76116        3
     3 D02   5800 Lovell Ave, Fort Worth, TX 76107             3
     4 D03   4200 Birchman Ave, Fort Worth, TX 76107           4
     5 D04   6100 Wester Ave, Fort Worth, TX 76116             3
     6 D05   3516 Corto Ave, Fort Worth, TX 76109              5
     7 D06   7400 Oakmont Blvd, Fort Worth, TX 76132           5
     8 D07   7200 Oakmont Blvd, Fort Worth, TX 76132           3
     9 D08   8517 Calmont Ave, Fort Worth, TX 76116            5
    10 D09   3905 Las Vegas Trail, Fort Worth, TX 76116        4
    # ℹ 16 more rows
…
